{
  "project_info": {
    "project_number": "627756233979",
    "firebase_url": "https://daovi-fc5e7.firebaseio.com",
    "project_id": "daovi-fc5e7",
    "storage_bucket": "daovi-fc5e7.appspot.com"
  },
  "client": [
    {
      "client_info": {
        "mobilesdk_app_id": "1:627756233979:android:42a9a17d1e133a7a",
        "android_client_info": {
          "package_name": "facci.jhonzambrano.daovi"
        }
      },
      "oauth_client": [
        {
          "client_id": "627756233979-2cv13jsqjg5janna23hr6hggp0idjqb9.apps.googleusercontent.com",
          "client_type": 1,
          "android_info": {
            "package_name": "facci.jhonzambrano.daovi",
            "certificate_hash": "1db835da184c469c2bf8e5f5bd8e942beb91a08f"
          }
        },
        {
          "client_id": "627756233979-80kcjkpffl71tletvod4g9i5j4f8c28l.apps.googleusercontent.com",
          "client_type": 3
        }
      ],
      "api_key": [
        {
          "current_key": "AIzaSyBuVTGWaeoYyXR4a1Q-NujgZ_ntEz4a3k8"
        }
      ],
      "services": {
        "analytics_service": {
          "status": 1
        },
        "appinvite_service": {
          "status": 2,
          "other_platform_oauth_client": [
            {
              "client_id": "627756233979-80kcjkpffl71tletvod4g9i5j4f8c28l.apps.googleusercontent.com",
              "client_type": 3
            }
          ]
        },
        "ads_service": {
          "status": 2
        }
      }
    }
  ],
  "configuration_version": "1"
}